C:\Users\Alexis\workspace-app\revolut\oauth-service\src\main\java\org\m2\oauthservice\config\OAuthConfiguration.java
C:\Users\Alexis\workspace-app\revolut\oauth-service\src\main\java\org\m2\oauthservice\entity\Account.java
C:\Users\Alexis\workspace-app\revolut\oauth-service\src\main\java\org\m2\oauthservice\OauthServiceApplication.java
C:\Users\Alexis\workspace-app\revolut\oauth-service\src\main\java\org\m2\oauthservice\boundary\AccountRepository.java
C:\Users\Alexis\workspace-app\revolut\oauth-service\src\main\java\org\m2\oauthservice\boundary\AccountUserDetailsService.java
C:\Users\Alexis\workspace-app\revolut\oauth-service\src\main\java\org\m2\oauthservice\boundary\PrincipalRestController.java
C:\Users\Alexis\workspace-app\revolut\oauth-service\src\main\java\org\m2\oauthservice\boundary\HibernateUtil.java
C:\Users\Alexis\workspace-app\revolut\oauth-service\src\main\java\org\m2\oauthservice\config\ServerSecurityConfiguration.java
C:\Users\Alexis\workspace-app\revolut\oauth-service\src\main\java\org\m2\oauthservice\boundary\ProductController.java
